{
    "name": "",
    "units": "",
    "doi": "",
    "sfsimodels_version": "",
    "comments": "",
    "models": {
        "soil": {
            "1": {
                "id": 1,
                "name": null,
                "base_type": "soil",
                "type": "soil",
                "stype": "soil",
                "g_mod": 38250000.0,
                "bulk_mod": null,
                "poissons_ratio": null,
                "phi": null,
                "dilation_angle": null,
                "e_min": null,
                "e_max": null,
                "e_curr": null,
                "relative_density": null,
                "specific_gravity": null,
                "unit_dry_weight": 16660.0,
                "unit_sat_weight": null,
                "saturation": null,
                "cohesion": 38250.0,
                "plasticity_index": null,
                "permeability": null
            },
            "2": {
                "id": 2,
                "name": null,
                "base_type": "soil",
                "type": "soil",
                "stype": "soil",
                "g_mod": 612000000.0,
                "bulk_mod": null,
                "poissons_ratio": null,
                "phi": null,
                "dilation_angle": null,
                "e_min": null,
                "e_max": null,
                "e_curr": null,
                "relative_density": null,
                "specific_gravity": null,
                "unit_dry_weight": 16660.0,
                "unit_sat_weight": null,
                "saturation": null,
                "cohesion": null,
                "plasticity_index": null,
                "permeability": null
            }
        },
        "soil_profile": {
            "1": {
                "id": "1",
                "name": null,
                "gwl": 1000000.0,
                "unit_water_weight": 9800.0,
                "height": 31.0,
                "layers": [
                    {
                        "soil_id": "1",
                        "depth": 0.0
                    },
                    {
                        "soil_id": "2",
                        "depth": 30.0
                    }
                ]
            }
        }
    }
}